<?xml version="1.0" encoding="UTF-8"?>
<session version="1.0">
<refactoring comment="Copy element &apos;Skill59.java&apos; to &apos;extension.skills.Skill59.java&apos;&#x0D;&#x0A;- Original project: &apos;MyTest&apos;&#x0D;&#x0A;- Destination element: &apos;extension.skills.Skill59.java&apos;&#x0D;&#x0A;- Original element: &apos;extension.skills.Skill59.java&apos;" description="Copy compilation unit" destination="/src&lt;extension.skills{Skill59.java" element1="/src&lt;extension.skills{Skill59.java" files="0" flags="589830" folders="0" id="org.eclipse.jdt.ui.copy" policy="org.eclipse.jdt.ui.copyResources" stamp="1555987015023" units="1" version="1.0"/>
</session>