<?xml version="1.0" encoding="UTF-8"?>
<session version="1.0">
<refactoring comment="Delete resource &apos;MyTest/src/extension/skills/Skill193.java&apos;" deleteContents="false" description="Delete resource &apos;MyTest/src/extension/skills/Skill193.java&apos;" element1="/MyTest/src/extension/skills/Skill193.java" flags="7" id="org.eclipse.ltk.core.refactoring.delete.resources" resources="1" stamp="1538951515219"/>
</session>