<?xml version="1.0" encoding="UTF-8"?>
<session version="1.0">
<refactoring comment="将资源“CardProjAIR/src/updateConfig.xm;”重命名为“updateConfig.xml”" description="重命名资源“updateConfig.xm;”" flags="7" id="org.eclipse.ltk.core.refactoring.rename.resource" input="src/updateConfig.xm;" name="updateConfig.xml" stamp="1537049218438" updateReferences="true"/>
</session>