2018/09/16 13:06:50.227 - [ INFO ] [id: 10] (SmartFoxServer.bootH2Engine): Starting h2 engine...
2018/09/16 13:06:50.278 - [ WARNING ] [id: 10] (SmartFoxServer.bootH2Engine): Cannot start H2 Engine: org.h2.jdbc.JdbcSQLException: IO Exception: java.net.SocketException: Unrecognized Windows Sockets error: 0: JVM_Bind; port: 9009 ssl: false [90031-60]
2018/09/16 13:06:51.118 - [ INFO ] [id: 10] (ExtensionHandler.createExtension): Zone Extension [ login ] created, for zone:CardGame
2018/09/16 13:06:51.129 - [ SEVERE ] [id: 10] (SmartFoxServer.initServerSocket): 

[ --> FATAL ERROR <-- ]: Error initializing server.

Check if server address and port are properly configured.

